%YAML 1.1
%TAG !u! tag:unity3d.com,2011:
--- !u!21 &2100000
Material:
  serializedVersion: 6
  m_ObjectHideFlags: 0
  m_PrefabParentObject: {fileID: 0}
  m_PrefabInternal: {fileID: 0}
  m_Name: 7.BumpMapping
  m_Shader: {fileID: 4800000, guid: 3dd23388e9a9a41e0be20dcd03781980, type: 3}
  m_ShaderKeywords: 
  m_LightmapFlags: 4
  m_EnableInstancingVariants: 0
  m_DoubleSidedGI: 0
  m_CustomRenderQueue: -1
  stringTagMap: {}
  disabledShaderPasses: []
  m_SavedProperties:
    serializedVersion: 3
    m_TexEnvs:
    - _bumpMap:
        m_Texture: {fileID: 2800000, guid: 94c473c9137744d7eabd829f1150da8d, type: 3}
        m_Scale: {x: 1, y: 1}
        m_Offset: {x: 0, y: 0}
    - _cubeMap:
        m_Texture: {fileID: 8900000, guid: 460e883c0adf84ca4b4210cd39e9fe0e, type: 3}
        m_Scale: {x: 1, y: 1}
        m_Offset: {x: 0, y: 0}
    - _texture:
        m_Texture: {fileID: 2800000, guid: 0a0e8af2869fa45f78e25460db578482, type: 3}
        m_Scale: {x: 1, y: 1}
        m_Offset: {x: 0, y: 0}
    m_Floats:
    - _ambient: 0.1
    - _bias: 0
    - _contrast: 1
    - _shininess: 100
    m_Colors: []
